Ensayo 6
…
      Micropropagación

  Publicaciones

  Bibliografía

  Sobre el sitio

  FrutAr

Ensayo 6

Encabezado de la base de datos

## # A tibble: 36 × 5
##      Día Tratamiento Respiración dia   respiracion
##    <dbl> <fct>             <dbl> <fct>       <dbl>
##  1     1 Control           33.9  1           33.9 
##  2     1 Control           28.4  1           28.4 
##  3     1 Control           21.9  1           21.9 
##  4     1 Etileno            6.91 1            6.91
##  5     1 Etileno           12.7  1           12.7 
##  6     1 Etileno           20.7  1           20.7 
##  7     1 1MCP              25.6  1           25.6 
##  8     1 1MCP              23.4  1           23.4 
##  9     1 1MCP              25.0  1           25.0 
## 10     3 Control           28.0  3           28.0 
## # ℹ 26 more rows
…
