Datos meteorológicos 2018 a 2021 - Moreno
…
  Publicaciones

  Bibliografía

  Sobre el sitio

  FrutAr

Datos meteorológicos 2018 a 2021 -
Moreno

Temperatura media

## # A tibble: 36 × 9
##    month term  contrast            null.value estimate std.error    df statistic  adj.p.value
##    <int> <chr> <chr>                    <dbl>    <dbl>     <dbl> <dbl>     <dbl>        <dbl>
##  1     3 year  year2018 - year2019          0    0.999     0.781   120     1.28  0.578       
##  2     3 year  year2018 - year2020          0   -2.14      0.781   120    -2.74  0.0355      
##  3     3 year  year2018 - year2021          0   -0.468     0.781   120    -0.599 0.932       
##  4     3 year  year2019 - year2020          0   -3.14      0.781   120    -4.02  0.000593    
##  5     3 year  year2019 - year2021          0   -1.47      0.781   120    -1.88  0.243       
##  6     3 year  year2020 - year2021          0    1.67      0.781   120     2.14  0.147       
##  7     4 year  year2018 - year2019          0    3.42      0.707   116     4.83  0.0000247   
##  8     4 year  year2018 - year2020          0    4.30      0.707   116     6.08  0.0000000936
##  9     4 year  year2018 - year2021          0    1.73      0.707   116     2.44  0.0748      
## 10     4 year  year2019 - year2020          0    0.884     0.707   116     1.25  0.596       
## # ℹ 26 more rows
…
