Predicción del incio y plena floración en Moreno
…
\(GD\): Grados-día acumulados.

\(T_{\text{max}}\): Temperatura
máxima diaria.

\(T_{\text{min}}\): Temperatura
mínima diaria.

\(T_b\): Temperatura base.

\(\sum\): Suma acumulativa para un
rango de tiempo dado.

## # A tibble: 200 × 5
##    BaseTemp    R2  RMSE Event               DataFrameName
##       <dbl> <dbl> <dbl> <chr>               <chr>        
##  1       12 0.873 10.4  Inicio de floración df_15        
##  2       12 0.873 10.4  Inicio de floración df_16        
##  3       12 0.835 12.1  Inicio de floración df_14        
##  4       12 0.833 10.8  Inicio de floración df_17        
##  5       12 0.816  5.86 Inicio de floración df_63        
##  6        6 0.815 17.8  Inicio de floración df_63        
##  7       12 0.809 14.8  Inicio de floración df_135       
##  8        6 0.803 19.8  Inicio de floración df_62        
##  9        4 0.801 23.3  Inicio de floración df_63        
## 10       10 0.796 20.4  Inicio de floración df_135       
## # ℹ 190 more rows
…
