Yield
…
## Analysis of Variance Table
## 
## Response: sqrt(P)
##           Df   Sum Sq   Mean Sq F value   Pr(>F)  
## YEAR       2  536.811 268.40546  3.0657 0.057179 .
## Residuals 42 3677.149  87.55117                   
## ---
## Signif. codes:  0 '***' 0.001 '**' 0.01 '*' 0.05 '.' 0.1 ' ' 1

There is no significant difference between years

Modelo de rendimiento en función del volummen de copa

## # A tibble: 45 × 4
##    YEAR  ACC   total_N total_P
##    <fct> <fct>   <dbl>   <dbl>
##  1 2019  1          81   1264.
##  2 2019  2          29    593.
##  3 2019  3          18    444.
##  4 2019  4          23    579.
##  5 2019  5          19    332.
##  6 2019  6          72   1406.
##  7 2019  7           8    164.
##  8 2019  8           8    219.
##  9 2019  9          18    329.
## 10 2019  10         48   1043.
## # ℹ 35 more rows
…
