q2022_quimico.knit
…
Tabla descriptiva por fenotipo

## # A tibble: 27 × 5
## # Groups:   site [2]
##    site      phenotype     n  Mean    sd
##    <fct>     <fct>     <int> <dbl> <dbl>
##  1 Concordia 154           4 1507. 122. 
##  2 Concordia 156           4  957.  29.8
##  3 Concordia 161           4  587. 133. 
##  4 Concordia 171           4  466. 168. 
##  5 Concordia 174           3  885.  87.0
##  6 Concordia 175           4 4390. 420. 
##  7 Concordia 178           4 3900. 374. 
##  8 Concordia 185           4 2245. 332. 
##  9 Concordia 190           4  708. 160. 
## 10 Concordia 193           4  790. 134. 
## # ℹ 17 more rows
…
Tabla descriptiva por fenotipo

## # A tibble: 27 × 5
## # Groups:   site [2]
##    site      phenotype     n  Mean      sd
##    <fct>     <fct>     <int> <dbl>   <dbl>
##  1 Concordia 154           4 0.704 0.111  
##  2 Concordia 156           4 0.879 0.211  
##  3 Concordia 161           4 0.827 0.0772 
##  4 Concordia 171           4 0.558 0.199  
##  5 Concordia 174           3 0.452 0.0870 
##  6 Concordia 175           4 0.948 0.00187
##  7 Concordia 178           4 0.951 0.00160
##  8 Concordia 185           4 0.958 0.00114
##  9 Concordia 190           4 0.874 0.0881 
## 10 Concordia 193           4 0.905 0.0572 
## # ℹ 17 more rows
…
Tabla descriptiva por fenotipo

## # A tibble: 27 × 5
## # Groups:   site [2]
##    site      phenotype     n  Mean       sd
##    <fct>     <fct>     <int> <dbl>    <dbl>
##  1 Concordia 154           4 0.950 0.00315 
##  2 Concordia 156           4 0.914 0.111   
##  3 Concordia 161           4 0.957 0.00312 
##  4 Concordia 171           4 0.823 0.109   
##  5 Concordia 174           3 0.747 0.0947  
##  6 Concordia 175           4 0.954 0.00145 
##  7 Concordia 178           4 0.970 0.000801
##  8 Concordia 185           3 0.967 0.00139 
##  9 Concordia 190           4 0.949 0.0246  
## 10 Concordia 193           4 0.961 0.00108 
## # ℹ 17 more rows
…
Tabla descriptiva por fenotipo

## # A tibble: 27 × 5
## # Groups:   site [2]
##    site      phenotype     n  Mean       sd
##    <fct>     <fct>     <int> <dbl>    <dbl>
##  1 Concordia 154           4 0.953 0.00249 
##  2 Concordia 156           4 0.934 0.0744  
##  3 Concordia 161           4 0.957 0.00312 
##  4 Concordia 171           4 0.944 0.0222  
##  5 Concordia 174           3 0.944 0.00650 
##  6 Concordia 175           4 0.954 0.00145 
##  7 Concordia 178           4 0.970 0.000801
##  8 Concordia 185           3 0.962 0.00182 
##  9 Concordia 190           4 0.962 0.000858
## 10 Concordia 193           4 0.961 0.00106 
## # ℹ 17 more rows
…
Tabla descriptiva por fenotipo

## # A tibble: 27 × 5
## # Groups:   site [2]
##    site      phenotype     n  Mean       sd
##    <fct>     <fct>     <int> <dbl>    <dbl>
##  1 Concordia 154           4 0.953 0.00249 
##  2 Concordia 156           4 0.930 0.0692  
##  3 Concordia 161           4 0.953 0.00417 
##  4 Concordia 171           4 0.956 0.00280 
##  5 Concordia 174           3 0.951 0.0112  
##  6 Concordia 175           4 0.950 0.000922
##  7 Concordia 178           4 0.957 0.00113 
##  8 Concordia 185           3 0.949 0.00277 
##  9 Concordia 190           4 0.961 0.000429
## 10 Concordia 193           4 0.960 0.00145 
## # ℹ 17 more rows
…
