Variables frutos
…
Análisis univariado

Componentes de varianza

A continuación se muestran los intervalos de correlación intraclase
(ICC) o repetibilidad expresada en proporción de la varianza total
explicada por cada nivel de agrupamiento (Año, Población, Individuo)
para caracteres físicos de frutos de individuos de Hexachlamys
edulis muestreados en Entre Ríos, Argentina en noviembre de los
años 2019, 2021 y 2022.

Los asteriscos indican diferencias estadísticas significativas (*
< 0,05; ** < 0,01; *** < 0,001).

## # A tibble: 124 × 4
##    year  site      phenotype n_frutos
##    <chr> <chr>     <chr>        <int>
##  1 2019  Concordia 154             12
##  2 2019  Concordia 156             12
##  3 2019  Concordia 161             12
##  4 2019  Concordia 171             12
##  5 2019  Concordia 174             12
##  6 2019  Concordia 175              6
##  7 2019  Concordia 178             11
##  8 2019  Concordia 185             12
##  9 2019  Concordia 190             12
## 10 2019  Concordia 193             12
## # ℹ 114 more rows

## # A tibble: 112 × 4
##    year  site      phenotype n_frutos
##    <chr> <chr>     <chr>        <int>
##  1 2019  Concordia 154              4
##  2 2019  Concordia 156              4
##  3 2019  Concordia 161              4
##  4 2019  Concordia 171              4
##  5 2019  Concordia 174              4
##  6 2019  Concordia 175              4
##  7 2019  Concordia 178              4
##  8 2019  Concordia 185              4
##  9 2019  Concordia 193              4
## 10 2019  Concordia 197              4
## # ℹ 102 more rows
…
