Phenols
…
2022
223
827.679927
626.386810
1167.415146
241.5954977

Phenotypes from Palmar

## # A tibble: 34 × 6
## # Groups:   year [3]
##    year  phenotype  Mean   min   max    sd
##    <fct> <fct>     <dbl> <dbl> <dbl> <dbl>
##  1 2019  260        356.  334.  384.  22.8
##  2 2019  261        371.  282.  453.  77.6
##  3 2019  262        442.  367.  507.  63.8
##  4 2019  268        347.  251.  499. 112. 
##  5 2019  271        314.  269.  395.  56.1
##  6 2019  272        452.  333.  612. 122. 
##  7 2019  274        589.  334.  952. 307. 
##  8 2019  276        324.  254.  436.  78.7
##  9 2019  280        435.  376.  515.  59.1
## 10 2019  281        875.  761.  982. 101. 
## # ℹ 24 more rows
…
2022
284
951.470947
616.194753
1205.635358
278.15388808

Phenotypes from Gualeguaychú

## # A tibble: 35 × 6
## # Groups:   year [3]
##    year  phenotype  Mean   min   max      sd
##    <fct> <fct>     <dbl> <dbl> <dbl>   <dbl>
##  1 2019  305        230.  187.  280.   41.0 
##  2 2019  306       2253.  873. 3085. 1021.  
##  3 2019  321        488.  424.  566.   68.4 
##  4 2019  324       1072.  502. 1693.  535.  
##  5 2019  325       1528. 1379. 1698.  140.  
##  6 2019  331        629.  501.  702.   91.5 
##  7 2019  337       2352. 1776. 2685.  420.  
##  8 2019  362        997.  608. 1339.  316.  
##  9 2019  363        602.  484.  827.  154.  
## 10 2021  305        240.  237.  242.    2.01
## # ℹ 25 more rows
…
